June Choe: First impressions of DataFrames.jl and accessories
…
List of s and s

Disclaimer: These are not a list of like/dislike or approve/disapprove. The  and  are just vibes - you know what I mean?

1)  The distinctness of the grouped df type

In {dplyr}, its easy to think of grouping as a transient operation.
We dont really think about group_by() as a data-wrangling function because the returned <grouped_df> object is visually very similar to the input.
Coupled with the general expectation that object attributes in R tend to be ephemeral, group_by() often gets treated like a second-class citizen even though grouping is sticky, making it a frequent culprit of subtle bugs.

group_by(mtcars_df, cyl)

  # A tibble: 32  12
  # Groups:   cyl [3]
     model         mpg   cyl  disp    hp  drat    wt  qsec    vs    am  gear  carb
     <chr>       <dbl> <int> <dbl> <int> <dbl> <dbl> <dbl> <int> <int> <int> <int>
   1 Mazda RX4    21       6  160    110  3.9   2.62  16.5     0     1     4     4
   2 Mazda RX4   21       6  160    110  3.9   2.88  17.0     0     1     4     4
   3 Datsun 710   22.8     4  108     93  3.85  2.32  18.6     1     1     4     1
   4 Hornet 4 D  21.4     6  258    110  3.08  3.22  19.4     1     0     3     1
   5 Hornet Spo  18.7     8  360    175  3.15  3.44  17.0     0     0     3     2
   6 Valiant      18.1     6  225    105  2.76  3.46  20.2     1     0     3     1
   7 Duster 360   14.3     8  360    245  3.21  3.57  15.8     0     0     3     4
   8 Merc 240D    24.4     4  147.    62  3.69  3.19  20       1     0     4     2
   9 Merc 230     22.8     4  141.    95  3.92  3.15  22.9     1     0     4     2
  10 Merc 280     19.2     6  168.   123  3.92  3.44  18.3     1     0     4     4
  #  with 22 more rows

In {data.table}, its at the opposite extreme.
Grouping via by= is right there in the slogan dt[i,j,by], sharing a privileged status with row selection i and column manipulation j.
Grouping as an operation is very prominent in the code but that also makes it feel a bit too integrated for my taste.
It feels too close to SQL, whereas I like my data wrangling operations to be more modular and portable.

I think that DataFrames.jl hits a good middle ground.
It keeps groupby() as a stand-alone operation while marking the output as very clearly distinct from the input.
The returned GroupedDataFrame type, when printed, visually splits the dataframe by groups:7

groupby(mtcars, :Cyl)

  GroupedDataFrame with 3 groups based on key: Cyl
  First Group (11 rows): Cyl = 4
   Row  Model          MPG      Cyl    Disp     HP     DRat     WT       QSec   
        String31       Float64  Int64  Float64  Int64  Float64  Float64  Float6 
  
     1  Datsun 710        22.8      4    108.0     93     3.85    2.32     18.6 
     2  Merc 240D         24.4      4    146.7     62     3.69    3.19     20.0
                                                                       
    10  Lotus Europa      30.4      4     95.1    113     3.77    1.513    16.9
    11  Volvo 142E        21.4      4    121.0    109     4.11    2.78     18.6
                                                      5 columns and 7 rows omitted
…
