June Choe: Saving a line of piping
…
1. rename() inside select()

You can rename a column inside select() by assigning a new name on the left hand side:

##### Long Form #####
# penguins %>% 
#   select(species, island) %>% 
#   rename(penguin_species = species)

penguins %>% 
  select(penguin_species = species,
         island)

  # A tibble: 333 x 2
     penguin_species island   
     <fct>           <fct>    
   1 Adelie          Torgersen
   2 Adelie          Torgersen
   3 Adelie          Torgersen
   4 Adelie          Torgersen
   5 Adelie          Torgersen
   6 Adelie          Torgersen
   7 Adelie          Torgersen
   8 Adelie          Torgersen
   9 Adelie          Torgersen
  10 Adelie          Torgersen
  # ... with 323 more rows

This also works with {tidyselect} helpers like starts_with(), ends_with(), contains(), and matches():

##### Long Form #####
# penguins %>% 
#   select(species, island) %>% 
#   rename(penguin_species = species,
#          weight = body_weight_g)

penguins %>% 
  select(penguin_species = species,
         island,
         weight = contains("mass"))

  # A tibble: 333 x 3
     penguin_species island    weight
     <fct>           <fct>      <int>
   1 Adelie          Torgersen   3750
   2 Adelie          Torgersen   3800
   3 Adelie          Torgersen   3250
   4 Adelie          Torgersen   3450
   5 Adelie          Torgersen   3650
   6 Adelie          Torgersen   3625
   7 Adelie          Torgersen   4675
   8 Adelie          Torgersen   3200
   9 Adelie          Torgersen   3800
  10 Adelie          Torgersen   4400
  # ... with 323 more rows
…
4. transmute() + select()

transmute() is a function that mutates columns and returns only those columns:

##### Long Form #####
# penguins %>% 
#   mutate(body_mass_kg = body_mass_g/1000) %>% 
#   select(body_mass_kg)

penguins %>% 
  transmute(body_mass_kg = body_mass_g/1000)

  # A tibble: 333 x 1
     body_mass_kg
            <dbl>
   1         3.75
   2         3.8 
   3         3.25
   4         3.45
   5         3.65
   6         3.62
   7         4.68
   8         3.2 
   9         3.8 
  10         4.4 
  # ... with 323 more rows
…
But actually you can just name the columns you want to include in transmute() like you would in select() to carry over columns that you arent modifying. And of course, you can rename them as you do it1:

##### Long Form #####
# penguins %>% 
#   mutate(body_mass_kg = body_mass_g/1000) %>% 
#   select(species, island, body_mass_kg) %>% 
#   rename(penguin_species = species)

penguins %>% 
  transmute(penguin_species = species,
            island,
            body_mass_kg = body_mass_g/1000)

  # A tibble: 333 x 3
     penguin_species island    body_mass_kg
     <fct>           <fct>            <dbl>
   1 Adelie          Torgersen         3.75
   2 Adelie          Torgersen         3.8 
   3 Adelie          Torgersen         3.25
   4 Adelie          Torgersen         3.45
   5 Adelie          Torgersen         3.65
   6 Adelie          Torgersen         3.62
   7 Adelie          Torgersen         4.68
   8 Adelie          Torgersen         3.2 
   9 Adelie          Torgersen         3.8 
  10 Adelie          Torgersen         4.4 
  # ... with 323 more rows
…
add_count() adds a column with the counts of each group (or combination of groups):

##### Long Form #####
# penguins %>% 
#   group_by(species) %>% 
#   mutate(count_by_species = n()) %>% 
#   ungroup()

penguins %>% 
  add_count(species, name = "count_by_species") %>% 
  # cutting down some columns to show the new column
  select(-contains("mm"))

  # A tibble: 333 x 6
     species island    body_mass_g sex     year count_by_species
     <fct>   <fct>           <int> <fct>  <int>            <int>
   1 Adelie  Torgersen        3750 male    2007              146
   2 Adelie  Torgersen        3800 female  2007              146
   3 Adelie  Torgersen        3250 female  2007              146
   4 Adelie  Torgersen        3450 female  2007              146
   5 Adelie  Torgersen        3650 male    2007              146
   6 Adelie  Torgersen        3625 female  2007              146
   7 Adelie  Torgersen        4675 male    2007              146
   8 Adelie  Torgersen        3200 female  2007              146
   9 Adelie  Torgersen        3800 male    2007              146
  10 Adelie  Torgersen        4400 male    2007              146
  # ... with 323 more rows

You can use the wt to effectively get sums by group (perhaps hackish but very very useful):

##### Long Form #####
# penguins %>% 
#   group_by(species) %>% 
#   mutate(total_weight_by_species = sum(body_mass_g)) %>% 
#   ungroup()

penguins %>% 
  add_count(species, wt = body_mass_g, name = "total_weight_by_species") %>% 
    # cutting down some columns to show the new column
  select(-contains("mm"))

  # A tibble: 333 x 6
     species island    body_mass_g sex     year total_weight_by_species
     <fct>   <fct>           <int> <fct>  <int>                   <int>
   1 Adelie  Torgersen        3750 male    2007                  541100
   2 Adelie  Torgersen        3800 female  2007                  541100
   3 Adelie  Torgersen        3250 female  2007                  541100
   4 Adelie  Torgersen        3450 female  2007                  541100
   5 Adelie  Torgersen        3650 male    2007                  541100
   6 Adelie  Torgersen        3625 female  2007                  541100
   7 Adelie  Torgersen        4675 male    2007                  541100
   8 Adelie  Torgersen        3200 female  2007                  541100
   9 Adelie  Torgersen        3800 male    2007                  541100
  10 Adelie  Torgersen        4400 male    2007                  541100
  # ... with 323 more rows

Also check out its more primitive version add_tally().

By default, add_tally() adds a count of rows, which you can already do with mutate(n = n()), but it shines when you make use of its wt argument:

penguins %>% 
  add_count(species, wt = body_mass_g, name = "total_weight_by_species") %>% 
  add_tally(wt = body_mass_g, name = "total_weight_of_all_species") %>% 
  select(1:2, last_col(0):last_col(1))

  # A tibble: 333 x 4
     species island    total_weight_of_all_species total_weight_by_species
     <fct>   <fct>                           <int>                   <int>
   1 Adelie  Torgersen                     1400950                  541100
   2 Adelie  Torgersen                     1400950                  541100
   3 Adelie  Torgersen                     1400950                  541100
   4 Adelie  Torgersen                     1400950                  541100
   5 Adelie  Torgersen                     1400950                  541100
   6 Adelie  Torgersen                     1400950                  541100
   7 Adelie  Torgersen                     1400950                  541100
   8 Adelie  Torgersen                     1400950                  541100
   9 Adelie  Torgersen                     1400950                  541100
  10 Adelie  Torgersen                     1400950                  541100
  # ... with 323 more rows
…
