Random Sampling: A table animation
…
Static

Let’s first start by generating 100,000 data points:

set.seed(2021)

library(dplyr)

samples_data <- MASS::mvrnorm(1e5, c(0, 0), matrix(c(1, .7, .7, 1), ncol = 2)) %>% 
  as_tibble(.name_repair = ~c("x", "y")) %>% 
  mutate(across(everything(), ~ as.character(.x - .x %% 0.2)))

samples_data

  # A tibble: 100,000 x 2
     x     y    
     <chr> <chr>
   1 0     -0.4 
   2 0.2   0.6  
   3 0.4   0.2  
   4 0.6   -0.2 
   5 0.6   0.8  
   6 -1.8  -2   
   7 0.8   -0.6 
   8 1.2   0.4  
   9 0.4   -0.4 
  10 1.4   1.6  
  # ... with 99,990 more rows
…
samples_data_spread

  # A tibble: 31 x 32
     ` `    `-3` `-2.8` `-2.6` `-2.4` `-2.2`  `-2` `-1.8` `-1.6` `-1.4` `-1.2`
     <chr> <int>  <int>  <int>  <int>  <int> <int>  <int>  <int>  <int>  <int>
   1 3        NA     NA     NA     NA     NA    NA     NA     NA     NA     NA
   2 2.8      NA     NA     NA     NA     NA    NA     NA     NA     NA     NA
   3 2.6      NA     NA     NA     NA     NA    NA     NA     NA     NA     NA
   4 2.4      NA     NA     NA     NA     NA    NA     NA     NA     NA     NA
   5 2.2      NA     NA     NA     NA     NA    NA     NA     NA     NA     NA
   6 2        NA     NA     NA     NA     NA    NA     NA     NA     NA     NA
   7 1.8      NA     NA     NA     NA     NA    NA     NA     NA     NA     NA
   8 1.6      NA     NA     NA     NA     NA    NA     NA      1      1      4
   9 1.4      NA     NA     NA     NA     NA    NA      1     NA      1      4
  10 1.2      NA     NA     NA     NA     NA    NA     NA      3      2      7
  # ... with 21 more rows, and 21 more variables: `-1` <int>, `-0.8` <int>,
  #   `-0.6` <int>, `-0.4` <int>, `-0.2` <int>, `0` <int>, `0.2` <int>,
  #   `0.4` <int>, `0.6` <int>, `0.8` <int>, `1` <int>, `1.2` <int>, `1.4` <int>,
  #   `1.6` <int>, `1.8` <int>, `2` <int>, `2.2` <int>, `2.4` <int>, `2.6` <int>,
  #   `2.8` <int>, `3` <int>
…
