June Choe: The Correlation Parameter in Mixed Effects Models
…
For the purposes of this discussion, I have created a toy experiment data (the code used to generate it is attached at the bottom).

The dataset toydata has 1,920 rows with the following columns:

Subject: The subject ID, which ranges from 1 to 80

Item: The item ID, which ranges from 1 to 24

Condition: The experimental condition, which is either Control or Treatment

Response: A continuous observed variable

toydata

  # A tibble: 1,920 x 4
     Subject Item  Condition Response
     <fct>   <fct> <fct>        <dbl>
   1 1       1     Control       226.
   2 1       2     Treatment     300.
   3 1       3     Control       239.
   4 1       4     Treatment     262.
   5 1       5     Control       241.
   6 1       6     Treatment     264.
   7 1       7     Control       237.
   8 1       8     Treatment     230.
   9 1       9     Control       229.
  10 1       10    Treatment     283.
  # ... with 1,910 more rows
…
