June Choe: Collapse repetitive piping with reduce()
…
  # A tibble: 3 x 5
    term             estimate std.error statistic   p.value
    <chr>               <dbl>     <dbl>     <dbl>     <dbl>
  1 (Intercept)        190.       0.552    344.   0.       
  2 speciesChinstrap     5.72     0.980      5.84 1.25e-  8
  3 speciesGentoo       27.1      0.824     32.9  2.68e-106

By the way, if youre wondering how this is practical, some modeling packages in R (like {lavaan} for structural equation modeling) only accept dummy coded variables that exist as independent columns/vectors, not as a metadata of a factor vector.16 This is common enough that some packages like {psych} have a function that does the same transformation we just did, called dummy.code()17:

bind_cols(
  penguins_implicit,
  psych::dummy.code(penguins_implicit$species)
)

  # A tibble: 333 x 3
     species flipper_length_mm ...3[,"Adelie"] [,"Gentoo"] [,"Chinstrap"]
     <fct>               <int>           <dbl>       <dbl>          <dbl>
   1 Adelie                181               1           0              0
   2 Adelie                186               1           0              0
   3 Adelie                195               1           0              0
   4 Adelie                193               1           0              0
   5 Adelie                190               1           0              0
   6 Adelie                181               1           0              0
   7 Adelie                195               1           0              0
   8 Adelie                182               1           0              0
   9 Adelie                191               1           0              0
  10 Adelie                198               1           0              0
  # ... with 323 more rows
…
